…
Result (2.4s)
── Attaching core tidyverse packages ───────────────────────────────────────────────── tidyverse 2.0.0 ──
✔ dplyr     1.2.0     ✔ readr     2.2.0
✔ forcats   1.0.1     ✔ stringr   1.6.0
✔ ggplot2   4.0.2     ✔ tibble    3.3.1
✔ lubridate 1.9.5     ✔ tidyr     1.3.2
✔ purrr     1.2.1     
── Conflicts ─────────────────────────────────────────────────────────────────── tidyverse_conflicts() ──
✖ dplyr::filter() masks stats::filter()
✖ dplyr::lag()    masks stats::lag()
ℹ Use the conflicted package to force all conflicts to become errors
# A tibble: 25 × 2
   para_id paragraph                                                                                     
     <int> <chr>                                                                                         
 1       1 THE educational institutions of our country act in a public capacity. Although oftentimes pri…
 2       2 This ideal is old, but America has made a new application of it. Formerly there was an educat…
 3       3 The old idea of training a few for leadership has been superseded by the modern idea of unive…
 4       4 Broad as this class has now become, They are still the ones who have been selected to be fore…
 5       5 No doubt the need always exists for self-confidence. That is strengthened by an exact and sch…
 6       6 After all, education is the process by which each individual recreates his own universe and d…
 7       7 Under more primitive conditions this was not the case. Those who were perhaps entirely untrai…
 8       8 These conditions were not without a marked effect on the character of those who came under th…
 9       9 The tendency in modern industry has been to change these conditions very materially in the di…
10      10 Our country has very well learned the value of the results of a material prosperity derived f…
# ℹ 15 more rows
# ℹ Use `print(n = ...)` to see more rows
…
Thinking

runCode
Load sentences to inspect current structure
Code
sentences <- readRDS("C:/Users/dkill/OneDrive/Documents/Embedded Poet/Presidential speeches/data/things_unseen_sentences.rds")
sentences



Result
# A tibble: 182 × 3
   para_id sent_id sentence                                                                              
     <int>   <int> <chr>                                                                                 
 1       1       1 THE educational institutions of our country act in a public capacity.                 
 2       1       2 Although oftentimes privately endowed, they exist under the authority of a charter gr…
 3       1       3 They were established to support the State, intellectually and morally.               
 4       1       4 They are not for the private advantage of the individual but for the public welfare o…
 5       2       1 This ideal is old, but America has made a new application of it.                      
 6       2       2 Formerly there was an educated class.                                                 
 7       2       3 From among their membership were drawn the magistrates and the clergymen.             
 8       2       4 It was their province to furnish instruction and leadership for the people.           
 9       2       5 They filled the pulpits, administered the offices, and conducted the schools.         
10       2       6 But in our country the ideal is no longer that of a highly educated few but of a broa…
# ℹ 172 more rows
# ℹ Use `print(n = ...)` to see more rows
…
saveRDS(sentences, "C:/Users/dkill/OneDrive/Documents/Embedded Poet/Presidential speeches/data/things_unseen_sentences.rds")

sentences



Result
# A tibble: 182 × 5
   para_sent_id sent_seq para_id sent_id sentence                                                        
   <chr>           <int>   <int>   <int> <chr>                                                           
 1 1_1                 1       1       1 THE educational institutions of our country act in a public cap…
 2 1_2                 2       1       2 Although oftentimes privately endowed, they exist under the aut…
 3 1_3                 3       1       3 They were established to support the State, intellectually and …
 4 1_4                 4       1       4 They are not for the private advantage of the individual but fo…
 5 2_1                 5       2       1 This ideal is old, but America has made a new application of it.
 6 2_2                 6       2       2 Formerly there was an educated class.                           
 7 2_3                 7       2       3 From among their membership were drawn the magistrates and the …
 8 2_4                 8       2       4 It was their province to furnish instruction and leadership for…
 9 2_5                 9       2       5 They filled the pulpits, administered the offices, and conducte…
10 2_6                10       2       6 But in our country the ideal is no longer that of a highly educ…
# ℹ 172 more rows
# ℹ Use `print(n = ...)` to see more rows
…
Thinking

runCode
Show Labor/Employment and Education subtopics from the codebook
Code
cb <- read_csv(codebook_path, show_col_types = FALSE)

cb |> filter(major_code %in% c(5, 6)) |> select(major_code, major_name, subtopic_code, subtopic_name)



Result
indexing policy_agendas_codebook.csv [=============================================] 820.26MB/s, eta:  0s
                                                                                                         
# A tibble: 21 × 4
   major_code major_name           subtopic_code subtopic_name                                           
        <dbl> <chr>                        <dbl> <chr>                                                   
 1          5 Labor and Employment           500 General (includes combinations of multiple subtopics)   
 2          5 Labor and Employment           501 Worker Safety and Protection, Occupational and Safety H…
 3          5 Labor and Employment           502 Employment Training and Workforce Development           
 4          5 Labor and Employment           503 Employee Benefits                                       
 5          5 Labor and Employment           504 Employee Relations and Labor Unions                     
 6          5 Labor and Employment           505 Fair Labor Standards                                    
 7          5 Labor and Employment           506 Youth Employment, Youth Job Corps Programs, and Child L…
 8          5 Labor and Employment           529 Migrant and Seasonal workers, Farm Labor Issues         
 9          5 Labor and Employment           599 Other                                                   
10          6 Education                      600 General (includes combinations of multiple subtopics)   
# ℹ 11 more rows
# ℹ Use `print(n = ...)` to see more rows
…
Thinking

runCode
Load things_unseen_coded into the environment
Code
things_unseen_coded <- readRDS("C:/Users/dkill/OneDrive/Documents/Embedded Poet/Presidential speeches/data/things_unseen_coded.rds")
things_unseen_coded



Result
# A tibble: 22 × 25
   passage_id sent_ids    para_ids theme text  major_code_1 major_name_1 subtopic_code_1
        <int> <chr>       <chr>    <chr> <chr>        <int> <chr>                  <int>
 1          1 1, 2, 3, 4  1        Role… THE …            6 Education                600
 2          2 5, 6, 7, 8… 2        Hist… This…            6 Education                600
 3          3 10, 11, 12  2, 3     Shif… But …            6 Education                600
 4          4 13, 14, 15… 3, 4     Chal… This…            6 Education                600
 5          5 19, 20, 21… 4        Mora… It i…            6 Education                607
 6          6 23, 24, 25… 5        Valu… No d…            6 Education                610
 7          7 29, 30, 31… 6, 7, 8  Impa… Afte…            6 Education                600
 8          8 45, 46, 47… 9        Voca… The …            6 Education                604
 9          9 53, 54, 55  10       Role… Our …            6 Education                607
10         10 56, 57, 58… 11       Mode… The …            1 Macroeconom…             100
# ℹ 12 more rows
# ℹ 17 more variables: subtopic_name_1 <chr>, major_code_2 <int>, major_name_2 <chr>,
#   subtopic_code_2 <int>, subtopic_name_2 <chr>, major_code_3 <int>,
#   major_name_3 <chr>, subtopic_code_3 <int>, subtopic_name_3 <chr>,
#   major_code_4 <int>, major_name_4 <chr>, subtopic_code_4 <int>,
#   subtopic_name_4 <chr>, major_code_5 <int>, major_name_5 <chr>,
#   subtopic_code_5 <int>, subtopic_name_5 <chr>
# ℹ Use `print(n = ...)` to see more rows
…
user_passages <- user_passages |> mutate(source = "user")

things_unseen_coded <- bind_rows(things_unseen_coded, user_passages) |>
  arrange(source, passage_id)

saveRDS(things_unseen_coded, file.path(base_path, "things_unseen_coded.rds"))

things_unseen_coded |> select(source, passage_id, sent_ids, theme, custom_theme_1)



Result
# A tibble: 24 × 5
   source passage_id sent_ids                                       theme custom_theme_1
   <chr>       <int> <chr>                                          <chr> <chr>         
 1 gpt             1 1, 2, 3, 4                                     Role… NA            
 2 gpt             2 5, 6, 7, 8, 9                                  Hist… NA            
 3 gpt             3 10, 11, 12                                     Shif… NA            
 4 gpt             4 13, 14, 15, 16, 17, 18                         Chal… NA            
 5 gpt             5 19, 20, 21, 22                                 Mora… NA            
 6 gpt             6 23, 24, 25, 26, 27, 28                         Valu… NA            
 7 gpt             7 29, 30, 31, 32, 33, 34, 35, 36, 37, 38, 39, 4… Impa… NA            
 8 gpt             8 45, 46, 47, 48, 49, 50, 51, 52                 Voca… NA            
 9 gpt             9 53, 54, 55                                     Role… NA            
10 gpt            10 56, 57, 58, 59, 60, 61, 62, 63                 Mode… NA            
# ℹ 14 more rows
# ℹ Use `print(n = ...)` to see more rows
…
